suburb,2013,2014,2015,2016,2017,2018,2019,2020,2021,2022,2023,2024,2025,2026,2027,2028,2029,2030,2031,2032,2033,2034,2035,2036,2037,2038,2039,2040,2041,2042,2043
Wellington City,"77,943","78,545","79,192","79,869","80,579","81,302","82,034","82,739","83,403","84,095","84,808","85,504","86,202","86,905","87,603","88,308","89,025","89,749","90,473","91,178","91,903","92,644","93,396","94,122","94,857","95,612","96,354","97,102","97,850","98,595","99,336"
Aro Valley - Highbury,"1,584","1,589","1,594","1,599","1,604","1,609","1,614","1,620","1,626","1,632","1,638","1,644","1,650","1,656","1,663","1,670","1,677","1,684","1,691","1,695","1,699","1,703","1,707","1,711","1,715","1,719","1,723","1,727","1,731","1,735","1,739"
Berhampore,"1,585","1,592","1,599","1,606","1,613","1,620","1,627","1,637","1,649","1,661","1,673","1,685","1,697","1,711","1,726","1,741","1,756","1,773","1,790","1,808","1,826","1,844","1,862","1,880","1,898","1,916","1,934","1,952","1,970","1,988","2,006"
Brooklyn,"2,688","2,701","2,712","2,727","2,749","2,773","2,801","2,829","2,856","2,883","2,906","2,928","2,948","2,968","2,988","3,006","3,021","3,032","3,039","3,047","3,052","3,057","3,062","3,067","3,072","3,077","3,082","3,087","3,092","3,097","3,102"
Churton Park - Glenside,"2,379","2,399","2,428","2,459","2,498","2,532","2,565","2,600","2,635","2,668","2,710","2,752","2,805","2,860","2,917","2,974","3,026","3,072","3,128","3,186","3,244","3,297","3,351","3,402","3,453","3,502","3,547","3,583","3,619","3,654","3,683"
Grenada Village - Paparangi - Woodridge - Horokiwi,"2,060","2,082","2,106","2,130","2,158","2,188","2,219","2,251","2,281","2,314","2,341","2,372","2,404","2,433","2,470","2,513","2,555","2,600","2,650","2,702","2,757","2,812","2,872","2,938","3,004","3,080","3,151","3,224","3,297","3,370","3,446"
Hataitai,"2,609","2,616","2,623","2,630","2,637","2,644","2,651","2,658","2,665","2,672","2,679","2,685","2,691","2,697","2,703","2,709","2,712","2,715","2,718","2,722","2,726","2,730","2,734","2,738","2,742","2,746","2,750","2,754","2,758","2,762","2,766"
Island Bay - Owhiro Bay,"3,296","3,315","3,334","3,353","3,370","3,386","3,402","3,415","3,428","3,441","3,454","3,467","3,480","3,493","3,504","3,515","3,525","3,535","3,545","3,552","3,559","3,566","3,573","3,580","3,587","3,594","3,601","3,607","3,613","3,619","3,625"
Johnsonville,"4,024","4,060","4,097","4,131","4,166","4,196","4,229","4,255","4,283","4,313","4,343","4,368","4,393","4,420","4,444","4,468","4,502","4,536","4,570","4,604","4,638","4,672","4,706","4,740","4,782","4,824","4,866","4,908","4,950","4,992","5,034"
Kaiwharawhara - Khandallah - Broadmeadows,"3,989","4,005","4,025","4,043","4,060","4,076","4,090","4,102","4,114","4,126","4,137","4,148","4,159","4,170","4,180","4,190","4,200","4,209","4,218","4,227","4,236","4,242","4,248","4,254","4,260","4,266","4,272","4,278","4,284","4,290","4,296"
Karori,"5,637","5,650","5,663","5,676","5,689","5,702","5,715","5,728","5,741","5,754","5,777","5,800","5,823","5,846","5,871","5,896","5,921","5,947","5,971","5,996","6,021","6,046","6,070","6,094","6,118","6,142","6,166","6,190","6,214","6,238","6,262"
Kelburn,"1,484","1,493","1,502","1,511","1,520","1,529","1,538","1,547","1,555","1,564","1,571","1,578","1,585","1,592","1,599","1,606","1,613","1,620","1,627","1,634","1,641","1,648","1,655","1,662","1,669","1,676","1,683","1,690","1,697","1,704","1,711"
Kilbirnie - Rongotai - Moa Point,"2,180","2,192","2,204","2,216","2,223","2,230","2,237","2,244","2,253","2,262","2,271","2,279","2,294","2,309","2,324","2,349","2,384","2,424","2,464","2,504","2,544","2,584","2,629","2,674","2,719","2,764","2,804","2,839","2,869","2,894","2,919"
Kingston - Mornington - Vogeltown,"1,291","1,298","1,305","1,313","1,321","1,327","1,330","1,334","1,338","1,342","1,346","1,350","1,354","1,358","1,362","1,366","1,370","1,374","1,378","1,382","1,386","1,390","1,394","1,397","1,400","1,403","1,406","1,409","1,412","1,415","1,418"
Lyall Bay,"1,129","1,135","1,141","1,147","1,153","1,159","1,164","1,166","1,168","1,170","1,172","1,174","1,176","1,178","1,180","1,182","1,184","1,186","1,188","1,190","1,192","1,194","1,196","1,198","1,200","1,202","1,204","1,206","1,208","1,210","1,212"
Miramar - Maupuia,"4,324","4,333","4,342","4,351","4,360","4,379","4,403","4,431","4,478","4,519","4,557","4,586","4,615","4,641","4,657","4,673","4,689","4,705","4,721","4,737","4,753","4,769","4,785","4,801","4,817","4,833","4,849","4,865","4,881","4,897","4,913"
Mt Cook,"2,706","2,765","2,817","2,842","2,865","2,888","2,911","2,933","2,960","2,986","3,006","3,036","3,066","3,098","3,133","3,168","3,203","3,238","3,273","3,308","3,343","3,378","3,413","3,448","3,483","3,518","3,553","3,588","3,623","3,658","3,693"
Mt Victoria,"2,272","2,286","2,300","2,314","2,328","2,342","2,356","2,370","2,382","2,394","2,405","2,418","2,430","2,440","2,450","2,460","2,470","2,480","2,490","2,500","2,510","2,520","2,530","2,540","2,550","2,560","2,570","2,580","2,590","2,600","2,610"
Newlands - Ngauranga,"2,742","2,754","2,767","2,789","2,812","2,834","2,857","2,881","2,908","2,936","2,962","2,989","3,014","3,038","3,061","3,083","3,104","3,122","3,138","3,152","3,166","3,180","3,192","3,203","3,214","3,225","3,236","3,247","3,258","3,269","3,280"
Newtown,"3,437","3,509","3,540","3,571","3,602","3,637","3,677","3,715","3,763","3,816","3,869","3,922","3,971","4,020","4,065","4,115","4,165","4,215","4,265","4,315","4,365","4,418","4,471","4,524","4,577","4,630","4,683","4,736","4,789","4,842","4,895"
Ngaio - Crofton Downs,"2,849","2,861","2,874","2,888","2,902","2,915","2,925","2,935","2,945","2,955","2,966","2,977","2,988","2,996","3,004","3,012","3,020","3,028","3,033","3,038","3,043","3,048","3,053","3,058","3,063","3,068","3,073","3,078","3,083","3,088","3,093"
Northland - Wilton,"2,325","2,332","2,339","2,346","2,353","2,360","2,367","2,374","2,382","2,387","2,392","2,395","2,398","2,401","2,404","2,407","2,410","2,413","2,417","2,421","2,425","2,429","2,433","2,437","2,441","2,445","2,449","2,453","2,457","2,461","2,465"
Ohariu - Makara - Makara Beach,344,346,348,350,352,354,356,358,360,362,364,366,368,370,372,374,376,378,380,382,384,386,388,390,392,394,396,398,400,402,404
Roseneath - Oriental Bay,"1,623","1,629","1,635","1,641","1,647","1,653","1,659","1,665","1,671","1,677","1,683","1,689","1,695","1,701","1,707","1,713","1,719","1,725","1,731","1,737","1,743","1,746","1,749","1,752","1,755","1,758","1,761","1,764","1,767","1,770","1,773"
Seatoun - Karaka Bays - Breaker Bay,"1,488","1,501","1,514","1,527","1,539","1,550","1,560","1,569","1,574","1,579","1,584","1,589","1,594","1,599","1,604","1,609","1,614","1,619","1,624","1,629","1,634","1,639","1,644","1,649","1,654","1,659","1,664","1,669","1,674","1,679","1,684"
Southgate - Houghton Bay - Melrose,"1,549","1,558","1,567","1,576","1,585","1,594","1,602","1,610","1,618","1,626","1,634","1,642","1,650","1,658","1,666","1,674","1,681","1,687","1,693","1,697","1,701","1,705","1,709","1,713","1,717","1,721","1,725","1,729","1,733","1,737","1,741"
Strathmore Park,"1,421","1,430","1,439","1,448","1,456","1,464","1,470","1,476","1,482","1,488","1,492","1,496","1,500","1,504","1,508","1,512","1,516","1,520","1,524","1,528","1,532","1,536","1,540","1,544","1,547","1,550","1,553","1,556","1,559","1,562","1,565"
Tawa - Grenada North - Takapu Valley,"5,193","5,212","5,232","5,254","5,277","5,298","5,321","5,343","5,367","5,391","5,425","5,458","5,491","5,522","5,547","5,582","5,622","5,663","5,704","5,745","5,799","5,865","5,937","6,016","6,095","6,181","6,266","6,355","6,449","6,546","6,642"
Te Aro,"4,668","4,795","4,956","5,202","5,455","5,667","5,865","6,052","6,202","6,370","6,546","6,683","6,818","6,953","7,093","7,208","7,323","7,448","7,573","7,718","7,863","8,018","8,170","8,285","8,400","8,520","8,640","8,775","8,910","9,045","9,180"
Thorndon - Pipitea,"2,246","2,262","2,278","2,294","2,310","2,333","2,357","2,373","2,389","2,410","2,431","2,452","2,472","2,492","2,512","2,535","2,558","2,581","2,604","2,632","2,660","2,690","2,720","2,750","2,783","2,816","2,851","2,886","2,921","2,956","2,991"
Wadestown,"1,469","1,481","1,493","1,505","1,518","1,531","1,544","1,556","1,568","1,580","1,592","1,604","1,616","1,627","1,638","1,649","1,660","1,671","1,682","1,691","1,700","1,709","1,718","1,727","1,735","1,743","1,751","1,759","1,767","1,775","1,783"
Wellington Central,"1,349","1,361","1,415","1,427","1,454","1,529","1,619","1,709","1,759","1,814","1,879","1,969","2,054","2,151","2,248","2,346","2,446","2,546","2,641","2,696","2,758","2,820","2,882","2,947","3,012","3,077","3,142","3,207","3,272","3,337","3,402"
